<svg xmlns="http://www.w3.org/2000/svg" width="49.337" height="37" viewBox="0 0 49.337 37">
  <path id="Sass_Logo_Color" d="M42.457,21.244a10.215,10.215,0,0,0-4.47,1.036,9.419,9.419,0,0,1-1-2.316,6.219,6.219,0,0,1-.09-1.947,17.288,17.288,0,0,1,.586-2.1c-.009-.09-.108-.514-1.1-.523s-1.847.189-1.947.451a10.875,10.875,0,0,0-.415,1.469A34.687,34.687,0,0,1,31,23.118a6.26,6.26,0,0,1-.685-1.694,6.219,6.219,0,0,1-.09-1.947,17.288,17.288,0,0,1,.586-2.1c-.009-.09-.108-.514-1.1-.523s-1.847.189-1.947.451-.207.874-.415,1.469-2.613,5.966-3.244,7.354c-.324.712-.6,1.28-.8,1.667h0a.411.411,0,0,1-.036.072c-.171.333-.27.514-.27.514v.009c-.135.243-.279.469-.351.469a3.015,3.015,0,0,1,.018-1.532c.36-1.865,1.217-4.767,1.208-4.866,0-.054.162-.559-.559-.82a.9.9,0,0,0-1.018.171c-.063,0-.108.153-.108.153s.784-3.262-1.5-3.262c-1.424,0-3.388,1.559-4.362,2.965-.613.333-1.919,1.045-3.316,1.811-.532.3-1.081.595-1.6.874-.036-.036-.072-.081-.108-.117-2.758-2.947-7.858-5.029-7.642-8.985.081-1.442.577-5.227,9.8-9.823,7.588-3.74,13.626-2.7,14.671-.406,1.5,3.28-3.235,9.372-11.075,10.255-2.992.333-4.56-.82-4.956-1.253-.415-.451-.478-.478-.631-.388-.252.135-.09.541,0,.775a4.628,4.628,0,0,0,2.83,2.226c1.442.469,4.947.73,9.192-.91C28.246,13.89,31.958,8.78,30.868,4.5c-1.09-4.344-8.3-5.776-15.122-3.352A34.362,34.362,0,0,0,4.131,7.816C.373,11.331-.222,14.386.021,15.665c.874,4.542,7.137,7.5,9.642,9.688-.126.072-.243.135-.342.189C8.069,26.164,3.292,28.66,2.1,31.3c-1.352,2.992.216,5.137,1.253,5.425a7.707,7.707,0,0,0,8.3-3.361,8.325,8.325,0,0,0,.739-7.669.188.188,0,0,0-.036-.054c.324-.189.658-.388.982-.577.64-.378,1.271-.73,1.811-1.018a11.877,11.877,0,0,0-.64,3.28,6.848,6.848,0,0,0,1.469,4.758,1.623,1.623,0,0,0,1.19.387c1.063,0,1.541-.883,2.073-1.928.649-1.28,1.235-2.767,1.235-2.767S19.748,31.8,21.73,31.8c.721,0,1.451-.937,1.775-1.415v.009s.018-.027.054-.09l.117-.189v-.018c.288-.5.937-1.649,1.9-3.551,1.244-2.451,2.442-5.515,2.442-5.515a15.662,15.662,0,0,0,.478,1.992,18.752,18.752,0,0,0,1.027,2.307c-.288.406-.469.631-.469.631l.009.009c-.234.306-.487.64-.766.964a28.724,28.724,0,0,0-2.316,2.9.788.788,0,0,0,.216,1.063,1.966,1.966,0,0,0,1.208.2,5.545,5.545,0,0,0,1.811-.415,6.079,6.079,0,0,0,1.559-.82,3.489,3.489,0,0,0,1.5-3.073,6.2,6.2,0,0,0-.568-2.172c.09-.126.171-.252.261-.378a41.282,41.282,0,0,0,2.7-4.668,15.661,15.661,0,0,0,.478,1.992,13.34,13.34,0,0,0,.874,1.983,8.565,8.565,0,0,0-2.631,3.4c-.568,1.64-.126,2.379.712,2.55a2.512,2.512,0,0,0,1.316-.27,5.993,5.993,0,0,0,1.667-.856,3.747,3.747,0,0,0,1.838-3.046,5.758,5.758,0,0,0-.415-1.8,9.438,9.438,0,0,1,4.785-.55c4.29.5,5.137,3.181,4.974,4.308A2.851,2.851,0,0,1,46.909,29.2c-.3.189-.4.252-.369.388.036.2.18.189.433.153a3.35,3.35,0,0,0,2.334-2.983C49.441,24.109,46.918,21.216,42.457,21.244ZM9.366,32.4C7.942,33.95,5.96,34.536,5.1,34.04c-.919-.532-.559-2.821,1.19-4.461a22.7,22.7,0,0,1,3.343-2.5c.207-.126.514-.306.883-.532.063-.036.1-.054.1-.054h0l.216-.135A6.155,6.155,0,0,1,9.366,32.4ZM19.73,25.353c-.5,1.208-1.532,4.3-2.163,4.127-.541-.144-.874-2.487-.108-4.8a10.912,10.912,0,0,1,1.685-3.091c.775-.865,1.631-1.153,1.838-.8C21.244,21.244,20.036,24.6,19.73,25.353Zm8.552,4.091c-.207.108-.406.18-.5.126-.063-.036.09-.18.09-.18s1.072-1.153,1.5-1.676c.243-.306.532-.667.838-1.072v.117C30.21,28.137,28.877,29.066,28.282,29.444Zm6.6-1.5c-.153-.108-.126-.469.388-1.6a6,6,0,0,1,1.469-1.892,2.551,2.551,0,0,1,.144.829A2.726,2.726,0,0,1,34.878,27.939Z" transform="translate(0.026 0.026)" fill="#141414" opacity="0.5"/>
</svg>
