<svg xmlns="http://www.w3.org/2000/svg" width="38" height="38" viewBox="0 0 38 38">
  <g id="yarn-seeklogo.com" transform="translate(0.5 0.5)" opacity="0.5">
    <path id="Path_45" data-name="Path 45" d="M18.5,0A18.5,18.5,0,1,0,37,18.5,18.5,18.5,0,0,0,18.5,0" fill="none" stroke="#141414" stroke-width="1"/>
    <path id="Path_46" data-name="Path 46" d="M78.677,62.617a8.312,8.312,0,0,0-3.136,1.443,18.81,18.81,0,0,1-4.622,2.093,1.292,1.292,0,0,1-.779.436,49.242,49.242,0,0,1-5.107.457c-.922.007-1.486-.236-1.643-.614a1.246,1.246,0,0,1,.686-1.643,2.971,2.971,0,0,1-.407-.3c-.136-.136-.279-.407-.321-.307-.179.436-.271,1.5-.75,1.979a2.4,2.4,0,0,1-2.636.057c-.807-.429.057-1.436.057-1.436a.578.578,0,0,1-.786-.271,3.839,3.839,0,0,1-.529-2.336,4.257,4.257,0,0,1,1.386-2.293,7.393,7.393,0,0,1,.521-3.486,8.273,8.273,0,0,1,2.507-2.9s-1.536-1.7-.964-3.229c.371-1,.521-.993.643-1.036a2.878,2.878,0,0,0,1.15-.679,4.17,4.17,0,0,1,3.493-1.343s.929-2.821,1.786-2.271a14.54,14.54,0,0,1,1.214,2.286s1.014-.593,1.129-.371a8.978,8.978,0,0,1,.414,4.857A11.1,11.1,0,0,1,69.927,56c-.107.179,1.229.743,2.071,3.079a9.023,9.023,0,0,1,.207,4.129c.021.036.029.05.029.05a5.178,5.178,0,0,0,2.686-1.036,6.729,6.729,0,0,1,3.386-1.271.857.857,0,0,1,.371,1.671Zm1.7-1.05a1.974,1.974,0,0,0-2.086-1.7A7.785,7.785,0,0,0,74.356,61.3a8.552,8.552,0,0,1-.929.507,7.586,7.586,0,0,0-.421-3.107,7.679,7.679,0,0,0-1.721-2.814,10.084,10.084,0,0,0,1.743-3.971,9.885,9.885,0,0,0-.514-5.557,1.137,1.137,0,0,0-.714-.579,1.4,1.4,0,0,0-.85.029c-.721-1.493-.971-1.65-1.164-1.779a1.456,1.456,0,0,0-1.314-.15,3.151,3.151,0,0,0-1.579,1.8c-.071.15-.136.293-.193.436a5.266,5.266,0,0,0-3.543,1.7,2.041,2.041,0,0,1-.75.4h.007c-.629.221-.914.736-1.264,1.664a3.991,3.991,0,0,0,.507,3.407,8,8,0,0,0-2.036,2.678,8.521,8.521,0,0,0-.629,3.479,4.692,4.692,0,0,0-1.357,2.636,4.889,4.889,0,0,0,.7,3,1.983,1.983,0,0,0,.236.3,1.779,1.779,0,0,0,.007.614,1.656,1.656,0,0,0,.886,1.164,3.737,3.737,0,0,0,3.271.207,2.918,2.918,0,0,0,2.236.757h.071a46.783,46.783,0,0,0,5.343-.486,2.6,2.6,0,0,0,1.086-.529,20,20,0,0,0,4.643-2.143,7.419,7.419,0,0,1,2.807-1.3,1.9,1.9,0,0,0,1.457-2.1Z" transform="translate(-49.291 -37.46)" fill="none" stroke="#141414" stroke-width="1"/>
  </g>
</svg>
